,order_purchase_timestamp,order_item_id,price,freight_value,review_score,order_price,order_freight,total_order_price
1137,2018-05-17 16:59:11,1,69.9,12.43,5,69.9,12.43,82.33000000000001
1138,2018-04-16 21:07:16,1,69.9,0.0,2,69.9,0.0,69.9
1139,2018-04-16 21:07:16,2,69.9,0.0,2,139.8,0.0,139.8
1140,2018-01-11 16:51:17,1,69.9,19.98,5,69.9,19.98,89.88000000000001
1141,2018-05-17 16:34:49,1,69.9,0.0,5,69.9,0.0,69.9
1142,2018-01-11 12:20:07,1,69.9,29.9,2,69.9,29.9,99.80000000000001
1143,2018-04-23 10:50:18,1,69.9,0.0,5,69.9,0.0,69.9
1144,2018-05-25 13:28:45,1,69.9,12.43,5,69.9,12.43,82.33000000000001
1145,2018-05-25 13:28:45,2,69.9,12.43,5,139.8,24.86,164.66000000000003
1146,2017-11-21 15:27:11,1,75.0,13.08,3,75.0,13.08,88.08
1147,2017-11-21 15:27:11,2,75.0,13.08,3,150.0,26.16,176.16
1148,2018-05-10 11:15:21,1,69.9,0.0,1,69.9,0.0,69.9
1149,2018-05-10 11:15:21,2,69.9,0.0,1,139.8,0.0,139.8
1150,2018-01-06 17:12:10,1,69.9,20.98,1,69.9,20.98,90.88000000000001
1151,2018-01-06 17:12:10,2,69.9,20.98,1,139.8,41.96,181.76000000000002
1152,2018-01-22 10:10:44,1,69.9,19.98,5,69.9,19.98,89.88000000000001
1153,2018-01-04 09:30:01,1,69.9,13.08,5,69.9,13.08,82.98
1154,2017-07-28 14:20:19,1,75.0,20.02,4,75.0,20.02,95.02
1155,2017-12-25 22:56:51,1,75.0,13.08,4,75.0,13.08,88.08
1156,2017-12-25 22:56:51,2,75.0,13.08,4,150.0,26.16,176.16
1157,2018-05-17 10:31:55,1,69.9,12.43,3,69.9,12.43,82.33000000000001
1158,2018-05-17 10:31:55,2,69.9,12.43,3,139.8,24.86,164.66000000000003
1159,2018-05-17 10:31:55,3,69.9,12.43,3,209.70000000000002,37.29,246.99
1160,2017-12-15 12:57:19,1,75.0,13.08,3,75.0,13.08,88.08
1161,2017-12-15 12:57:19,2,75.0,13.08,3,150.0,26.16,176.16
1162,2018-02-27 15:42:55,1,69.9,13.08,5,69.9,13.08,82.98
1163,2018-02-27 15:42:55,2,69.9,13.08,5,139.8,26.16,165.96
1164,2017-12-05 00:06:40,1,75.0,21.02,5,75.0,21.02,96.02
1165,2018-01-16 09:46:23,1,69.9,13.08,5,69.9,13.08,82.98
1166,2018-04-03 17:16:46,1,69.9,12.43,5,69.9,12.43,82.33000000000001
1167,2018-04-03 17:16:46,2,69.9,12.43,5,139.8,24.86,164.66000000000003
1168,2018-03-18 17:31:21,1,69.9,20.06,1,69.9,20.06,89.96000000000001
1169,2018-03-18 17:31:21,2,69.9,20.06,1,139.8,40.12,179.92000000000002
1170,2018-01-04 11:43:51,1,69.9,19.98,5,69.9,19.98,89.88000000000001
1171,2018-01-10 11:04:26,1,69.9,20.98,5,69.9,20.98,90.88000000000001
1172,2017-12-07 20:38:18,1,75.0,13.08,5,75.0,13.08,88.08
1173,2017-11-28 21:52:00,1,75.0,29.94,5,75.0,29.94,104.94
1174,2017-11-17 13:00:14,1,75.0,13.08,5,75.0,13.08,88.08
1175,2017-11-17 13:00:14,2,75.0,13.08,5,150.0,26.16,176.16
1176,2017-11-19 09:13:08,1,75.0,16.16,4,75.0,16.16,91.16
1177,2017-11-19 09:13:08,2,75.0,16.16,4,150.0,32.32,182.32
1178,2018-01-21 14:29:50,1,69.9,20.98,5,69.9,20.98,90.88000000000001
1179,2018-01-21 14:29:50,2,69.9,20.98,5,139.8,41.96,181.76000000000002
1180,2018-01-19 16:33:57,1,69.9,16.12,5,69.9,16.12,86.02000000000001
1181,2018-01-19 16:33:57,2,69.9,16.12,5,139.8,32.24,172.04000000000002
1182,2018-04-24 23:08:40,1,69.9,0.0,4,69.9,0.0,69.9
1183,2018-02-26 08:51:17,1,69.9,13.08,3,69.9,13.08,82.98
1184,2018-02-26 08:51:17,2,69.9,13.08,3,139.8,26.16,165.96
1185,2018-04-24 22:42:01,1,69.9,0.0,5,69.9,0.0,69.9
1186,2017-11-16 14:08:29,1,75.0,13.08,3,75.0,13.08,88.08
1187,2017-11-16 14:08:29,2,75.0,13.08,3,150.0,26.16,176.16
1188,2018-01-25 12:54:56,1,69.9,20.98,4,69.9,20.98,90.88000000000001
1189,2018-04-19 22:05:52,1,69.9,0.0,4,69.9,0.0,69.9
1190,2018-04-29 11:12:03,1,69.9,0.0,5,69.9,0.0,69.9
1191,2018-01-08 15:16:33,1,69.9,19.98,4,69.9,19.98,89.88000000000001
1192,2017-08-06 11:16:03,1,75.0,13.08,5,75.0,13.08,88.08
1193,2017-08-06 11:16:03,2,75.0,13.08,5,150.0,26.16,176.16
1194,2018-05-09 15:28:19,1,69.9,12.43,1,69.9,12.43,82.33000000000001
1195,2018-01-19 09:19:07,1,69.9,13.08,3,69.9,13.08,82.98
1196,2018-01-19 09:19:07,2,69.9,13.08,3,139.8,26.16,165.96
1197,2017-12-24 11:05:04,1,75.0,13.08,5,75.0,13.08,88.08
1198,2018-04-05 12:50:54,1,69.9,24.71,3,69.9,24.71,94.61000000000001
1199,2018-01-17 18:09:50,1,69.9,13.08,3,69.9,13.08,82.98
1200,2018-03-05 15:07:36,1,69.9,19.98,1,69.9,19.98,89.88000000000001
1201,2018-03-05 15:07:36,2,69.9,19.98,1,139.8,39.96,179.76000000000002
1202,2018-01-06 23:28:20,1,69.9,13.08,3,69.9,13.08,82.98
1203,2017-12-12 16:07:26,1,75.0,13.08,5,75.0,13.08,88.08
1204,2018-04-05 16:52:50,1,69.9,16.18,5,69.9,16.18,86.08000000000001
1205,2018-01-04 08:41:09,1,69.9,16.12,5,69.9,16.12,86.02000000000001
1206,2018-04-17 09:58:46,1,69.9,0.0,2,69.9,0.0,69.9
1207,2018-04-17 09:58:46,2,69.9,0.0,2,139.8,0.0,139.8
1208,2018-05-21 11:09:52,1,69.9,0.0,5,69.9,0.0,69.9
1209,2018-01-15 14:21:22,1,69.9,13.08,3,69.9,13.08,82.98
1210,2018-03-02 14:42:43,1,69.9,20.98,2,69.9,20.98,90.88000000000001
1211,2018-05-21 08:53:05,1,69.9,12.43,5,69.9,12.43,82.33000000000001
1212,2018-05-21 08:53:05,2,69.9,12.43,5,139.8,24.86,164.66000000000003
1213,2017-12-30 10:07:59,1,75.0,13.08,4,75.0,13.08,88.08
1214,2018-05-04 13:18:22,1,69.9,0.0,5,69.9,0.0,69.9
1215,2017-12-02 18:25:16,1,75.0,16.16,5,75.0,16.16,91.16
1216,2018-01-12 20:09:02,1,69.9,13.08,4,69.9,13.08,82.98
1217,2018-03-21 21:42:56,1,69.9,20.06,1,69.9,20.06,89.96000000000001
1218,2018-02-26 18:19:17,1,69.9,16.12,5,69.9,16.12,86.02000000000001
1219,2018-05-16 17:49:57,1,69.9,0.0,4,69.9,0.0,69.9
1220,2018-03-21 13:09:40,1,69.9,25.04,1,69.9,25.04,94.94
1221,2018-04-25 23:33:01,1,69.9,10.87,2,69.9,10.87,80.77000000000001
1223,2018-04-19 08:30:20,1,69.9,0.0,5,69.9,0.0,69.9
1224,2018-02-23 17:28:36,1,69.9,19.98,1,69.9,19.98,89.88000000000001
1225,2018-05-05 15:16:04,1,69.9,12.43,5,69.9,12.43,82.33000000000001
1226,2018-01-21 15:44:24,1,69.9,16.12,4,69.9,16.12,86.02000000000001
1227,2018-01-21 15:44:24,2,69.9,16.12,4,139.8,32.24,172.04000000000002
1228,2018-05-29 21:08:28,1,69.9,26.57,5,69.9,26.57,96.47
1229,2017-11-24 19:47:17,1,75.0,20.02,1,75.0,20.02,95.02
1230,2018-03-01 10:18:55,1,69.9,24.94,5,69.9,24.94,94.84
1231,2018-01-23 12:22:00,1,69.9,19.98,5,69.9,19.98,89.88000000000001
1232,2017-12-29 11:36:45,1,75.0,13.08,1,75.0,13.08,88.08
1233,2018-05-10 00:40:38,1,69.9,12.43,5,69.9,12.43,82.33000000000001
1234,2018-05-10 00:40:38,2,69.9,12.43,5,139.8,24.86,164.66000000000003
1235,2018-01-12 21:48:47,1,69.9,13.08,5,69.9,13.08,82.98
1236,2017-11-14 11:29:17,1,75.0,13.08,1,75.0,13.08,88.08
1237,2017-11-30 14:37:08,1,75.0,20.02,5,75.0,20.02,95.02
1238,2018-01-05 12:56:03,1,69.9,13.08,5,69.9,13.08,82.98
1239,2018-04-22 15:59:16,1,69.9,0.0,4,69.9,0.0,69.9
1240,2018-03-25 17:58:55,1,69.9,16.18,4,69.9,16.18,86.08000000000001
1241,2018-03-04 21:47:10,1,69.9,13.08,4,69.9,13.08,82.98
1242,2018-01-11 00:25:54,1,69.9,32.94,5,69.9,32.94,102.84
1243,2018-01-04 22:12:26,1,69.9,19.98,4,69.9,19.98,89.88000000000001
1244,2018-03-25 23:46:57,1,69.9,12.43,5,69.9,12.43,82.33000000000001
1245,2017-11-17 19:43:49,1,75.0,21.02,3,75.0,21.02,96.02
1246,2017-11-25 15:00:59,1,75.0,13.08,3,75.0,13.08,88.08
1247,2018-04-28 18:35:26,1,69.9,0.0,4,69.9,0.0,69.9
1248,2018-02-14 13:18:52,1,69.9,13.08,1,69.9,13.08,82.98
1249,2018-02-14 13:18:52,2,69.9,13.08,1,139.8,26.16,165.96
1250,2018-02-14 13:18:52,3,69.9,13.08,1,209.70000000000002,39.24,248.94000000000003
1251,2018-08-09 11:07:40,1,109.9,22.07,5,109.9,22.07,131.97
1252,2018-01-15 21:50:36,1,69.9,13.08,5,69.9,13.08,82.98
1253,2018-01-19 16:47:26,1,69.9,19.98,4,69.9,19.98,89.88000000000001
1254,2018-05-02 19:38:26,1,69.9,0.0,5,69.9,0.0,69.9
1255,2018-05-23 23:51:50,1,69.9,0.0,5,69.9,0.0,69.9
1256,2017-11-10 13:43:11,1,75.0,16.16,4,75.0,16.16,91.16
1257,2018-01-08 12:57:12,1,69.9,20.98,4,69.9,20.98,90.88000000000001
1258,2018-03-20 11:29:46,1,69.9,24.71,5,69.9,24.71,94.61000000000001
1259,2018-01-16 12:45:33,1,69.9,13.08,5,69.9,13.08,82.98
1260,2018-05-19 19:46:33,1,69.9,0.0,5,69.9,0.0,69.9
1261,2017-08-03 17:34:25,1,75.0,13.08,4,75.0,13.08,88.08
1262,2018-03-26 02:15:00,1,69.9,12.43,4,69.9,12.43,82.33000000000001
1263,2018-03-06 20:06:34,1,69.9,26.57,4,69.9,26.57,96.47
1264,2018-01-13 15:18:32,1,69.9,19.98,4,69.9,19.98,89.88000000000001
1265,2018-01-06 17:32:11,1,69.9,19.98,5,69.9,19.98,89.88000000000001
1266,2018-01-06 17:32:11,2,69.9,19.98,5,139.8,39.96,179.76000000000002
1267,2018-03-18 22:38:10,1,69.9,12.43,2,69.9,12.43,82.33000000000001
1268,2018-05-03 13:57:06,1,69.9,0.0,5,69.9,0.0,69.9
1269,2017-10-11 13:53:45,1,75.0,21.02,5,75.0,21.02,96.02
1270,2018-02-19 10:17:28,1,69.9,19.98,4,69.9,19.98,89.88000000000001
1271,2018-01-24 12:38:22,1,69.9,32.94,5,69.9,32.94,102.84
1272,2018-02-13 22:29:44,1,69.9,13.08,3,69.9,13.08,82.98
1273,2017-11-11 16:05:12,1,75.0,13.08,5,75.0,13.08,88.08
1274,2018-05-01 18:06:41,1,69.9,0.0,4,69.9,0.0,69.9
1275,2018-05-01 18:06:41,2,69.9,0.0,4,139.8,0.0,139.8
1276,2018-01-09 21:48:00,1,69.9,13.08,5,69.9,13.08,82.98
1277,2018-01-04 22:16:30,1,69.9,16.12,5,69.9,16.12,86.02000000000001
1278,2018-04-04 18:14:13,1,69.9,24.71,2,69.9,24.71,94.61000000000001
1279,2018-01-27 09:32:51,1,69.9,16.12,4,69.9,16.12,86.02000000000001
1280,2017-12-25 12:59:40,1,75.0,20.02,4,75.0,20.02,95.02
1281,2018-04-27 18:35:40,1,69.9,0.0,5,69.9,0.0,69.9
1282,2017-12-31 18:40:52,1,75.0,21.02,3,75.0,21.02,96.02
1283,2018-01-02 15:16:36,1,75.0,13.08,5,75.0,13.08,88.08
1284,2017-12-01 17:36:30,1,75.0,13.08,4,75.0,13.08,88.08
1285,2018-04-14 15:31:49,1,69.9,12.43,5,69.9,12.43,82.33000000000001
1286,2018-02-14 21:29:43,1,69.9,13.08,5,69.9,13.08,82.98
1287,2018-02-14 21:29:43,2,69.9,13.08,5,139.8,26.16,165.96
1288,2017-11-28 19:00:23,1,75.0,13.08,5,75.0,13.08,88.08
1289,2017-11-28 19:00:23,2,75.0,13.08,5,150.0,26.16,176.16
1290,2017-11-28 12:02:48,1,75.0,21.02,5,75.0,21.02,96.02
1291,2018-04-18 13:30:46,1,69.9,0.0,3,69.9,0.0,69.9
1292,2018-04-18 13:30:46,2,69.9,0.0,3,139.8,0.0,139.8
1293,2017-12-26 13:20:13,1,75.0,21.02,3,75.0,21.02,96.02
1294,2018-01-13 16:47:32,1,69.9,19.98,5,69.9,19.98,89.88000000000001
1295,2018-03-24 10:01:37,1,69.9,20.06,4,69.9,20.06,89.96000000000001
1296,2018-04-22 13:50:47,1,69.9,0.0,5,69.9,0.0,69.9
1297,2018-03-18 20:18:21,1,69.9,20.06,5,69.9,20.06,89.96000000000001
1298,2018-01-04 20:32:50,1,69.9,13.08,5,69.9,13.08,82.98
1299,2018-04-13 19:07:29,1,69.9,12.43,5,69.9,12.43,82.33000000000001
1300,2018-04-06 10:42:06,1,69.9,24.71,5,69.9,24.71,94.61000000000001
1301,2018-03-21 15:09:08,1,69.9,24.71,5,69.9,24.71,94.61000000000001
1302,2018-01-11 23:38:06,1,69.9,16.12,5,69.9,16.12,86.02000000000001
1303,2018-01-04 09:07:39,1,69.9,20.98,5,69.9,20.98,90.88000000000001
1304,2018-05-26 09:27:50,1,69.9,0.0,5,69.9,0.0,69.9
1305,2018-01-18 13:29:55,1,69.9,13.08,3,69.9,13.08,82.98
1306,2018-02-14 02:30:34,1,69.9,13.08,4,69.9,13.08,82.98
1307,2018-03-15 14:19:41,1,69.9,28.96,4,69.9,28.96,98.86000000000001
1308,2018-01-14 22:26:31,1,69.9,13.08,4,69.9,13.08,82.98
1309,2018-04-09 16:28:27,1,69.9,24.71,5,69.9,24.71,94.61000000000001
1310,2018-01-03 21:00:21,1,69.9,13.08,4,69.9,13.08,82.98
1311,2017-12-12 13:36:46,1,75.0,13.08,5,75.0,13.08,88.08
1312,2018-01-07 23:03:41,1,69.9,19.98,5,69.9,19.98,89.88000000000001
1313,2017-10-07 19:24:09,1,75.0,13.08,2,75.0,13.08,88.08
1314,2018-05-16 19:04:43,1,69.9,0.0,5,69.9,0.0,69.9
1315,2018-05-16 19:04:43,2,69.9,0.0,5,139.8,0.0,139.8
1316,2018-03-12 10:13:05,1,69.9,26.57,1,69.9,26.57,96.47
1317,2018-01-02 11:12:14,1,75.0,20.02,5,75.0,20.02,95.02
1318,2017-12-29 17:42:12,1,75.0,20.02,4,75.0,20.02,95.02
1319,2017-08-05 11:20:48,1,75.0,13.08,5,75.0,13.08,88.08
1320,2017-12-21 11:44:58,1,75.0,13.08,4,75.0,13.08,88.08
1321,2017-12-21 11:44:58,2,75.0,13.08,4,150.0,26.16,176.16
1322,2018-01-23 22:21:52,1,69.9,22.36,4,69.9,22.36,92.26
1323,2018-03-17 23:06:17,1,69.9,12.43,5,69.9,12.43,82.33000000000001
1324,2018-05-05 17:29:55,1,69.9,12.43,3,69.9,12.43,82.33000000000001
1325,2018-03-24 14:24:28,1,69.9,16.18,5,69.9,16.18,86.08000000000001
1326,2018-01-04 11:15:38,1,69.9,20.98,4,69.9,20.98,90.88000000000001
1327,2017-12-15 00:55:29,1,75.0,13.08,5,75.0,13.08,88.08
1328,2018-03-02 00:09:59,1,69.9,13.08,4,69.9,13.08,82.98
1329,2018-01-19 16:33:20,1,69.9,19.98,4,69.9,19.98,89.88000000000001
1330,2017-12-10 18:17:23,1,75.0,20.02,5,75.0,20.02,95.02
1331,2017-11-28 20:35:59,1,75.0,20.02,5,75.0,20.02,95.02
1332,2018-01-24 20:56:37,1,69.9,20.98,3,69.9,20.98,90.88000000000001
1333,2018-01-05 16:46:56,1,69.9,13.08,5,69.9,13.08,82.98
1334,2018-04-01 18:33:04,1,69.9,25.04,1,69.9,25.04,94.94
1335,2017-08-01 13:11:47,1,75.0,13.08,5,75.0,13.08,88.08
1336,2017-08-01 13:11:47,2,75.0,13.08,5,150.0,26.16,176.16
1337,2017-08-01 13:11:47,3,75.0,13.08,5,225.0,39.24,264.24
1338,2018-01-13 12:13:44,1,69.9,20.98,4,69.9,20.98,90.88000000000001
1339,2018-04-01 20:29:00,1,69.9,12.43,5,69.9,12.43,82.33000000000001
1340,2017-11-17 19:42:24,1,75.0,13.08,2,75.0,13.08,88.08
1341,2017-11-17 19:42:24,2,75.0,13.08,2,150.0,26.16,176.16
1342,2018-01-18 21:57:16,1,69.9,19.98,4,69.9,19.98,89.88000000000001
1343,2018-05-18 18:00:59,1,69.9,12.43,5,69.9,12.43,82.33000000000001
1344,2018-01-06 23:13:06,1,69.9,13.08,5,69.9,13.08,82.98
1345,2018-04-30 08:16:55,1,69.9,0.0,5,69.9,0.0,69.9
1346,2018-01-18 15:17:24,1,69.9,16.12,5,69.9,16.12,86.02000000000001
1347,2018-05-23 08:23:15,1,69.9,0.0,5,69.9,0.0,69.9
1348,2018-05-08 07:14:16,1,69.9,0.0,5,69.9,0.0,69.9
1349,2018-05-02 09:01:03,1,69.9,12.43,5,69.9,12.43,82.33000000000001
1350,2018-04-09 23:34:35,1,69.9,24.71,1,69.9,24.71,94.61000000000001
1351,2018-04-09 23:34:35,2,69.9,24.71,1,139.8,49.42,189.22000000000003
1352,2017-12-05 12:58:41,1,75.0,20.02,4,75.0,20.02,95.02
1353,2017-11-10 23:39:55,1,75.0,13.08,5,75.0,13.08,88.08
1354,2018-03-23 15:57:23,1,69.9,20.06,5,69.9,20.06,89.96000000000001
1355,2018-05-21 18:12:16,1,69.9,0.0,5,69.9,0.0,69.9
1356,2018-03-26 23:35:47,1,69.9,12.43,5,69.9,12.43,82.33000000000001
1357,2018-05-19 20:00:06,1,69.9,0.0,5,69.9,0.0,69.9
1358,2018-05-21 14:45:56,1,69.9,12.43,4,69.9,12.43,82.33000000000001
1359,2018-05-21 14:45:56,2,69.9,12.43,4,139.8,24.86,164.66000000000003
1360,2017-11-16 15:20:45,1,75.0,13.08,3,75.0,13.08,88.08
1361,2018-01-04 10:53:52,1,69.9,13.08,5,69.9,13.08,82.98
1362,2018-03-07 15:59:58,1,69.9,14.13,4,69.9,14.13,84.03
1363,2018-01-10 17:06:30,1,69.9,19.98,5,69.9,19.98,89.88000000000001
1364,2018-02-23 14:43:35,1,69.9,13.08,5,69.9,13.08,82.98
1365,2018-08-06 15:21:10,1,89.9,17.76,1,89.9,17.76,107.66000000000001
1366,2018-03-05 20:21:02,1,69.9,21.57,4,69.9,21.57,91.47
1367,2018-02-14 14:20:29,1,69.9,13.08,5,69.9,13.08,82.98
1368,2018-02-14 14:20:29,2,69.9,13.08,5,139.8,26.16,165.96
1369,2017-11-18 13:37:41,1,75.0,13.08,5,75.0,13.08,88.08
1370,2017-11-18 13:37:41,2,75.0,13.08,5,150.0,26.16,176.16
1371,2018-02-17 01:29:13,1,69.9,13.08,5,69.9,13.08,82.98
1372,2018-05-23 11:14:52,1,69.9,12.43,5,69.9,12.43,82.33000000000001
1373,2017-11-29 11:58:07,1,75.0,21.02,4,75.0,21.02,96.02
1374,2018-01-10 12:39:39,1,69.9,13.08,5,69.9,13.08,82.98
1375,2018-01-09 20:59:52,1,69.9,16.12,5,69.9,16.12,86.02000000000001
1376,2018-04-18 13:56:51,1,69.9,0.0,4,69.9,0.0,69.9
1377,2017-12-07 09:08:30,1,75.0,16.16,5,75.0,16.16,91.16
1378,2017-12-07 09:08:30,2,75.0,16.16,5,150.0,32.32,182.32
1379,2018-04-17 15:21:32,1,69.9,12.43,4,69.9,12.43,82.33000000000001
1380,2018-04-19 01:10:02,1,69.9,12.43,5,69.9,12.43,82.33000000000001
1381,2018-02-15 13:03:08,1,69.9,20.98,1,69.9,20.98,90.88000000000001
1382,2018-01-23 14:17:56,1,69.9,23.36,5,69.9,23.36,93.26
1383,2018-01-07 14:23:54,1,69.9,19.98,5,69.9,19.98,89.88000000000001
1384,2018-01-15 11:04:05,1,69.9,20.98,5,69.9,20.98,90.88000000000001
1385,2018-01-15 11:04:05,2,69.9,20.98,5,139.8,41.96,181.76000000000002
1386,2018-04-17 22:25:47,1,69.9,12.43,5,69.9,12.43,82.33000000000001
1387,2018-01-14 17:46:11,1,69.9,23.36,5,69.9,23.36,93.26
1388,2018-05-06 17:40:21,1,69.9,0.0,5,69.9,0.0,69.9
1389,2017-12-14 16:53:48,1,75.0,13.08,5,75.0,13.08,88.08
1390,2018-05-10 16:10:47,1,69.9,12.43,5,69.9,12.43,82.33000000000001
1391,2017-12-15 11:46:19,1,75.0,20.02,1,75.0,20.02,95.02
1392,2017-12-15 11:46:19,2,75.0,20.02,1,150.0,40.04,190.04
1393,2018-05-08 12:30:21,1,69.9,0.0,2,69.9,0.0,69.9
1394,2018-01-18 23:14:10,1,69.9,13.08,1,69.9,13.08,82.98
1395,2018-05-23 16:51:21,1,69.9,12.43,5,69.9,12.43,82.33000000000001
1396,2018-02-17 19:09:21,1,69.9,20.98,5,69.9,20.98,90.88000000000001
1397,2018-01-13 06:24:46,1,69.9,13.08,5,69.9,13.08,82.98
1398,2018-01-13 06:24:46,2,69.9,13.08,5,139.8,26.16,165.96
1399,2018-04-02 22:16:22,1,69.9,12.43,4,69.9,12.43,82.33000000000001
1400,2018-04-02 22:16:22,2,69.9,12.43,4,139.8,24.86,164.66000000000003
1401,2018-04-02 22:16:22,3,69.9,12.43,4,209.70000000000002,37.29,246.99
1402,2018-04-19 12:46:41,1,69.9,0.0,5,69.9,0.0,69.9
1403,2018-01-25 11:30:52,1,69.9,32.94,2,69.9,32.94,102.84
1404,2017-11-24 11:17:38,1,75.0,20.02,5,75.0,20.02,95.02
1405,2017-08-04 19:00:59,1,75.0,13.08,4,75.0,13.08,88.08
1406,2018-01-08 10:05:30,1,69.9,13.08,3,69.9,13.08,82.98
1407,2018-01-17 17:03:23,1,69.9,13.08,5,69.9,13.08,82.98
1408,2018-02-19 18:50:41,1,69.9,19.98,5,69.9,19.98,89.88000000000001
1409,2018-01-10 09:31:29,1,69.9,13.08,3,69.9,13.08,82.98
1410,2018-01-17 13:25:28,1,69.9,19.98,3,69.9,19.98,89.88000000000001
1411,2018-04-07 11:50:43,1,69.9,12.43,5,69.9,12.43,82.33000000000001
1412,2018-03-24 19:48:21,1,69.9,12.43,3,69.9,12.43,82.33000000000001
1413,2018-03-24 19:48:21,2,69.9,12.43,3,139.8,24.86,164.66000000000003
1414,2017-11-12 19:21:11,1,75.0,13.08,1,75.0,13.08,88.08
1415,2017-11-12 19:21:11,2,75.0,13.08,1,150.0,26.16,176.16
1416,2017-11-12 19:21:11,3,75.0,13.08,1,225.0,39.24,264.24
1417,2017-12-04 17:11:11,1,75.0,23.4,5,75.0,23.4,98.4
1418,2018-04-20 07:59:18,1,69.9,0.0,4,69.9,0.0,69.9
1419,2018-05-01 11:55:52,1,69.9,0.0,4,69.9,0.0,69.9
1420,2018-03-23 10:10:19,1,69.9,12.43,5,69.9,12.43,82.33000000000001
1421,2018-01-10 19:22:09,1,69.9,13.08,3,69.9,13.08,82.98
1422,2017-08-02 10:38:47,1,75.0,24.98,5,75.0,24.98,99.98
1423,2018-05-01 22:57:43,1,69.9,0.0,5,69.9,0.0,69.9
1424,2018-05-16 15:50:49,1,69.9,0.0,5,69.9,0.0,69.9
1425,2018-03-22 12:42:36,1,69.9,16.18,4,69.9,16.18,86.08000000000001
1426,2018-04-18 11:53:03,1,69.9,0.0,5,69.9,0.0,69.9
1427,2018-05-08 23:37:53,1,69.9,0.0,5,69.9,0.0,69.9
1428,2018-01-11 15:40:47,1,69.9,20.98,3,69.9,20.98,90.88000000000001
1429,2018-01-11 15:40:47,2,69.9,20.98,3,139.8,41.96,181.76000000000002
1430,2017-12-26 11:42:57,1,75.0,20.02,5,75.0,20.02,95.02
1431,2018-01-10 12:33:40,1,69.9,13.08,5,69.9,13.08,82.98
1432,2018-02-27 14:59:25,1,69.9,20.98,5,69.9,20.98,90.88000000000001
1433,2017-12-06 11:06:52,1,75.0,29.94,5,75.0,29.94,104.94
1434,2017-12-06 11:06:52,2,75.0,29.94,5,150.0,59.88,209.88
1435,2017-12-06 11:06:52,3,75.0,29.94,5,225.0,89.82000000000001,314.82
1436,2018-05-09 09:08:49,1,69.9,0.0,5,69.9,0.0,69.9
1437,2018-06-19 09:58:43,1,89.9,21.93,5,89.9,21.93,111.83000000000001
1438,2018-06-19 09:58:43,2,89.9,21.93,5,179.8,43.86,223.66000000000003
1439,2018-01-05 22:47:23,1,69.9,19.98,4,69.9,19.98,89.88000000000001
1440,2018-05-03 10:12:23,1,69.9,0.0,5,69.9,0.0,69.9
1441,2018-05-08 10:48:38,1,69.9,0.0,5,69.9,0.0,69.9
1442,2018-05-09 20:08:50,1,69.9,0.0,5,69.9,0.0,69.9
1443,2018-04-17 18:41:47,1,69.9,0.0,1,69.9,0.0,69.9
1444,2018-05-23 12:38:04,1,69.9,12.43,5,69.9,12.43,82.33000000000001
1445,2018-01-06 09:59:00,1,69.9,13.08,4,69.9,13.08,82.98
1446,2018-01-06 09:59:00,2,69.9,13.08,4,139.8,26.16,165.96
1447,2018-01-11 19:15:06,1,69.9,13.08,3,69.9,13.08,82.98
1448,2018-03-02 15:27:05,1,69.9,14.0,4,69.9,14.0,83.9
1449,2018-03-02 15:27:05,2,69.9,14.0,4,139.8,28.0,167.8
1450,2018-01-05 16:24:48,1,69.9,13.08,5,69.9,13.08,82.98
1451,2018-05-06 10:19:10,1,69.9,0.0,5,69.9,0.0,69.9
1452,2017-12-12 18:51:47,1,75.0,13.08,1,75.0,13.08,88.08
1453,2017-12-12 18:51:47,2,75.0,13.08,1,150.0,26.16,176.16
1454,2018-05-17 08:48:05,1,69.9,12.43,5,69.9,12.43,82.33000000000001
1455,2018-01-04 22:41:11,1,69.9,13.08,5,69.9,13.08,82.98
1456,2018-01-04 22:41:11,2,69.9,13.08,5,139.8,26.16,165.96
1457,2018-04-23 21:07:39,1,69.9,18.6,5,69.9,18.6,88.5
1458,2018-03-19 14:49:56,1,69.9,12.43,5,69.9,12.43,82.33000000000001
1459,2018-03-09 13:30:23,1,69.9,26.57,4,69.9,26.57,96.47
1460,2018-04-29 13:33:31,1,69.9,12.43,3,69.9,12.43,82.33000000000001
1461,2018-05-09 00:10:08,1,69.9,0.0,4,69.9,0.0,69.9
1462,2018-03-03 20:17:36,1,69.9,13.08,5,69.9,13.08,82.98
1463,2018-02-19 22:31:34,1,69.9,20.98,4,69.9,20.98,90.88000000000001
1464,2018-01-05 09:58:59,1,69.9,14.0,4,69.9,14.0,83.9
1465,2018-01-05 09:58:59,2,69.9,14.0,4,139.8,28.0,167.8
1466,2018-04-07 20:11:54,1,69.9,12.43,5,69.9,12.43,82.33000000000001
1467,2017-12-01 13:45:30,1,75.0,20.02,2,75.0,20.02,95.02
1468,2017-12-01 13:45:30,2,75.0,20.02,2,150.0,40.04,190.04
1469,2017-12-01 13:45:30,3,75.0,20.02,2,225.0,60.06,285.06
1470,2017-12-01 13:45:30,4,75.0,20.02,2,300.0,80.08,380.08
1471,2018-01-05 20:02:56,1,69.9,16.12,5,69.9,16.12,86.02000000000001
1472,2018-04-19 14:42:34,1,69.9,0.0,5,69.9,0.0,69.9
1473,2017-12-26 08:24:57,1,75.0,13.08,4,75.0,13.08,88.08
1474,2018-04-21 11:59:45,1,69.9,0.0,4,69.9,0.0,69.9
1475,2018-02-21 12:31:46,1,69.9,13.08,5,69.9,13.08,82.98
1476,2018-05-17 16:40:12,1,69.9,0.0,5,69.9,0.0,69.9
1477,2017-11-16 12:12:37,1,75.0,13.08,3,75.0,13.08,88.08
1478,2017-11-16 12:12:37,2,75.0,13.08,3,150.0,26.16,176.16
1479,2017-08-04 13:41:17,1,75.0,21.02,5,75.0,21.02,96.02
1480,2018-05-07 10:50:09,1,69.9,0.0,3,69.9,0.0,69.9
1481,2018-05-09 00:25:48,1,69.9,0.0,5,69.9,0.0,69.9
1482,2018-05-09 00:25:48,2,69.9,0.0,5,139.8,0.0,139.8
1483,2017-11-10 14:19:52,1,75.0,13.08,5,75.0,13.08,88.08
1484,2017-11-19 10:21:25,1,75.0,13.08,4,75.0,13.08,88.08
1485,2018-04-16 00:50:40,1,69.9,12.43,5,69.9,12.43,82.33000000000001
1486,2018-04-16 00:50:40,2,69.9,12.43,5,139.8,24.86,164.66000000000003
1487,2018-03-26 12:25:58,1,69.9,20.06,1,69.9,20.06,89.96000000000001
1488,2018-01-05 21:29:54,1,69.9,19.98,3,69.9,19.98,89.88000000000001
1489,2018-03-26 23:03:30,1,69.9,22.45,4,69.9,22.45,92.35000000000001
1490,2018-04-26 16:05:23,1,69.9,12.43,5,69.9,12.43,82.33000000000001
1491,2018-03-27 13:55:54,1,69.9,12.43,4,69.9,12.43,82.33000000000001
1492,2018-03-27 13:55:54,2,69.9,12.43,4,139.8,24.86,164.66000000000003
1493,2018-04-10 10:40:01,1,69.9,25.04,4,69.9,25.04,94.94
1494,2017-12-08 21:46:10,1,75.0,20.02,1,75.0,20.02,95.02
1495,2018-03-04 23:38:00,1,69.9,35.85,3,69.9,35.85,105.75
1496,2018-01-08 23:33:12,1,69.9,19.98,5,69.9,19.98,89.88000000000001
1497,2018-01-08 23:33:12,2,69.9,19.98,5,139.8,39.96,179.76000000000002
1498,2018-05-23 12:02:38,1,69.9,0.0,5,69.9,0.0,69.9
1499,2017-12-22 00:37:14,1,75.0,13.08,5,75.0,13.08,88.08
1500,2018-03-04 13:10:50,1,69.9,23.36,3,69.9,23.36,93.26
1501,2017-12-11 23:55:52,1,75.0,13.08,4,75.0,13.08,88.08
1502,2018-02-28 10:46:18,1,69.9,13.08,5,69.9,13.08,82.98
1503,2018-02-28 10:46:18,2,69.9,13.08,5,139.8,26.16,165.96
1504,2018-02-28 10:46:18,3,69.9,13.08,5,209.70000000000002,39.24,248.94000000000003
1505,2018-05-25 17:53:59,1,69.9,12.43,5,69.9,12.43,82.33000000000001
1506,2018-03-10 15:04:34,1,69.9,12.43,1,69.9,12.43,82.33000000000001
1507,2018-03-10 15:04:34,2,69.9,12.43,1,139.8,24.86,164.66000000000003
1508,2018-02-22 23:30:05,1,69.9,16.12,1,69.9,16.12,86.02000000000001
1509,2018-03-31 18:28:25,1,69.9,12.43,5,69.9,12.43,82.33000000000001
1510,2018-03-30 16:32:37,1,69.9,12.43,5,69.9,12.43,82.33000000000001
1511,2018-01-05 22:38:43,1,69.9,24.94,5,69.9,24.94,94.84
1512,2018-01-05 22:38:43,2,69.9,24.94,5,139.8,49.88,189.68
1513,2018-04-15 20:07:56,1,69.9,20.06,5,69.9,20.06,89.96000000000001
1514,2017-10-31 12:34:29,1,75.0,13.08,5,75.0,13.08,88.08
1515,2018-08-18 16:37:58,1,109.9,27.07,5,109.9,27.07,136.97
1516,2017-07-28 15:56:14,1,75.0,20.02,4,75.0,20.02,95.02
1517,2018-04-23 14:18:51,1,69.9,0.0,4,69.9,0.0,69.9
1518,2018-01-04 22:36:32,1,69.9,16.12,5,69.9,16.12,86.02000000000001
1519,2018-05-20 13:38:25,1,69.9,0.0,5,69.9,0.0,69.9
1520,2017-07-29 13:22:44,1,75.0,13.08,4,75.0,13.08,88.08
1521,2017-07-29 13:22:44,2,75.0,13.08,4,150.0,26.16,176.16
1522,2018-04-27 22:38:14,1,69.9,12.43,3,69.9,12.43,82.33000000000001
1523,2018-04-27 22:38:14,2,69.9,12.43,3,139.8,24.86,164.66000000000003
1524,2018-04-27 22:38:14,3,69.9,12.43,3,209.70000000000002,37.29,246.99
1525,2018-04-27 22:38:14,4,69.9,12.43,3,279.6,49.72,329.32000000000005
1526,2018-03-03 22:22:38,1,69.9,19.98,5,69.9,19.98,89.88000000000001
1527,2018-04-16 20:33:44,1,69.9,0.0,3,69.9,0.0,69.9
1528,2018-04-16 20:33:44,2,69.9,0.0,3,139.8,0.0,139.8
1529,2017-12-03 17:21:20,1,75.0,21.02,5,75.0,21.02,96.02
1530,2018-03-08 19:46:59,1,69.9,12.43,5,69.9,12.43,82.33000000000001
1531,2018-03-08 19:46:59,2,69.9,12.43,5,139.8,24.86,164.66000000000003
1532,2018-03-08 20:08:04,1,69.9,17.4,5,69.9,17.4,87.30000000000001
1533,2018-01-09 00:16:48,1,69.9,19.98,5,69.9,19.98,89.88000000000001
1534,2018-02-28 21:01:01,1,69.9,20.98,3,69.9,20.98,90.88000000000001
1535,2018-04-12 23:00:13,1,69.9,12.43,5,69.9,12.43,82.33000000000001
1536,2018-05-04 11:34:53,1,69.9,0.0,5,69.9,0.0,69.9
1537,2017-12-08 06:22:33,1,75.0,16.16,4,75.0,16.16,91.16
1538,2018-05-16 19:08:50,1,69.9,0.0,5,69.9,0.0,69.9
1539,2018-01-04 16:22:45,1,69.9,22.36,5,69.9,22.36,92.26
1540,2018-02-24 09:27:13,1,69.9,13.08,1,69.9,13.08,82.98
1541,2018-03-15 22:00:27,1,69.9,12.43,4,69.9,12.43,82.33000000000001
1542,2018-03-06 22:33:02,1,69.9,17.4,4,69.9,17.4,87.30000000000001
1543,2018-02-15 16:13:46,1,69.9,13.08,4,69.9,13.08,82.98
1544,2018-02-15 16:13:46,2,69.9,13.08,4,139.8,26.16,165.96
1545,2018-04-07 11:29:56,1,69.9,16.18,5,69.9,16.18,86.08000000000001
1546,2018-01-17 17:40:14,1,69.9,13.08,4,69.9,13.08,82.98
1547,2018-05-02 22:01:59,1,69.9,0.0,4,69.9,0.0,69.9
1548,2018-01-04 09:07:49,1,69.9,20.98,5,69.9,20.98,90.88000000000001
1549,2018-03-06 17:42:44,1,69.9,26.57,4,69.9,26.57,96.47
1550,2018-04-23 11:07:45,1,69.9,0.0,3,69.9,0.0,69.9
1551,2018-02-28 08:39:25,1,69.9,20.98,5,69.9,20.98,90.88000000000001
1552,2017-12-06 22:43:30,1,75.0,20.02,1,75.0,20.02,95.02
1553,2017-12-06 22:43:30,2,75.0,20.02,1,150.0,40.04,190.04
1554,2018-01-15 14:30:06,1,69.9,13.08,4,69.9,13.08,82.98
1555,2018-04-26 16:36:35,1,69.9,12.43,5,69.9,12.43,82.33000000000001
1556,2017-11-20 11:27:08,1,75.0,13.08,5,75.0,13.08,88.08
1557,2018-04-08 17:36:18,1,69.9,12.43,5,69.9,12.43,82.33000000000001
1558,2018-01-12 22:53:41,1,69.9,20.98,4,69.9,20.98,90.88000000000001
1559,2018-05-20 13:15:21,1,69.9,0.0,5,69.9,0.0,69.9
1560,2018-05-20 13:15:21,2,69.9,0.0,5,139.8,0.0,139.8
1561,2018-01-08 21:59:49,1,69.9,13.08,4,69.9,13.08,82.98
1562,2018-05-04 22:53:19,1,69.9,0.0,5,69.9,0.0,69.9
1563,2018-05-06 12:46:07,1,69.9,0.0,5,69.9,0.0,69.9
1564,2018-05-06 12:46:07,2,69.9,0.0,5,139.8,0.0,139.8
1565,2018-01-22 11:34:24,1,69.9,13.08,4,69.9,13.08,82.98
1566,2018-04-08 20:29:33,1,69.9,20.06,4,69.9,20.06,89.96000000000001
1567,2018-05-12 11:05:06,1,69.9,0.0,1,69.9,0.0,69.9
1568,2018-05-12 11:05:06,2,69.9,0.0,1,139.8,0.0,139.8
1569,2017-08-06 15:51:54,1,75.0,20.02,4,75.0,20.02,95.02
1570,2018-01-16 17:42:39,1,69.9,16.12,3,69.9,16.12,86.02000000000001
1571,2018-04-26 21:39:21,1,69.9,12.43,5,69.9,12.43,82.33000000000001
1572,2018-05-26 08:58:34,1,69.9,0.0,5,69.9,0.0,69.9
1573,2018-02-20 20:51:22,1,69.9,16.12,4,69.9,16.12,86.02000000000001
1574,2018-02-27 21:25:02,1,69.9,20.98,4,69.9,20.98,90.88000000000001
1575,2018-04-02 08:48:21,1,69.9,12.43,3,69.9,12.43,82.33000000000001
1576,2018-01-08 12:02:19,1,69.9,24.94,2,69.9,24.94,94.84
1577,2018-04-17 14:23:50,1,69.9,0.0,5,69.9,0.0,69.9
1578,2018-07-22 13:09:08,1,89.9,26.93,5,89.9,26.93,116.83000000000001
1579,2018-05-23 12:37:05,1,69.9,12.43,5,69.9,12.43,82.33000000000001
1580,2018-04-22 17:08:49,1,69.9,0.0,5,69.9,0.0,69.9
1581,2017-11-10 14:15:44,1,75.0,13.08,5,75.0,13.08,88.08
1582,2018-03-30 20:24:56,1,69.9,12.43,5,69.9,12.43,82.33000000000001
1583,2018-01-18 19:47:58,1,69.9,13.08,5,69.9,13.08,82.98
1584,2018-03-26 22:25:35,1,69.9,22.45,4,69.9,22.45,92.35000000000001
1585,2018-03-22 15:11:22,1,69.9,20.06,5,69.9,20.06,89.96000000000001
1586,2018-04-05 14:26:15,1,69.9,12.43,5,69.9,12.43,82.33000000000001
1587,2018-04-05 14:26:15,2,69.9,12.43,5,139.8,24.86,164.66000000000003
1588,2018-04-05 14:26:15,3,69.9,12.43,5,209.70000000000002,37.29,246.99
1589,2018-05-08 14:13:22,1,69.9,0.0,5,69.9,0.0,69.9
1590,2018-05-08 14:13:22,2,69.9,0.0,5,139.8,0.0,139.8
1591,2018-04-01 15:51:53,1,69.9,16.18,5,69.9,16.18,86.08000000000001
1592,2018-04-17 14:32:21,1,69.9,12.43,5,69.9,12.43,82.33000000000001
1593,2018-05-06 07:43:54,1,69.9,0.0,1,69.9,0.0,69.9
1594,2018-01-05 10:24:17,1,69.9,13.08,5,69.9,13.08,82.98
1595,2017-11-18 17:05:58,1,75.0,20.02,5,75.0,20.02,95.02
1596,2017-11-18 17:05:58,2,75.0,20.02,5,150.0,40.04,190.04
1597,2017-11-18 17:05:58,3,75.0,20.02,5,225.0,60.06,285.06
1598,2017-11-17 00:49:51,1,75.0,21.02,5,75.0,21.02,96.02
1599,2018-01-21 16:31:04,1,69.9,13.08,5,69.9,13.08,82.98
1600,2018-03-05 18:17:36,1,69.9,20.98,5,69.9,20.98,90.88000000000001
1601,2018-04-05 22:00:32,1,69.9,12.43,4,69.9,12.43,82.33000000000001
1602,2018-01-15 20:01:51,1,69.9,13.08,4,69.9,13.08,82.98
1603,2018-05-07 10:48:57,1,69.9,0.0,4,69.9,0.0,69.9
1604,2018-01-09 13:53:18,1,69.9,16.12,5,69.9,16.12,86.02000000000001
1605,2018-05-01 11:10:57,1,69.9,0.0,5,69.9,0.0,69.9
1606,2018-04-21 17:20:44,1,69.9,12.43,4,69.9,12.43,82.33000000000001
1607,2018-05-18 22:11:22,1,69.9,12.43,5,69.9,12.43,82.33000000000001
1608,2018-03-18 19:56:52,1,69.9,16.18,5,69.9,16.18,86.08000000000001
1609,2017-11-29 11:27:12,1,75.0,21.02,4,75.0,21.02,96.02
1610,2017-07-25 10:50:22,1,75.0,13.08,1,75.0,13.08,88.08
1611,2018-05-09 18:01:29,1,69.9,0.0,4,69.9,0.0,69.9
1612,2018-05-04 21:06:29,1,69.9,0.0,2,69.9,0.0,69.9
1613,2018-05-04 21:06:29,2,69.9,0.0,2,139.8,0.0,139.8
1614,2018-03-17 15:14:48,1,69.9,25.04,5,69.9,25.04,94.94
1615,2017-08-03 11:47:07,1,75.0,13.08,4,75.0,13.08,88.08
1616,2018-04-17 21:42:27,1,69.9,13.85,5,69.9,13.85,83.75
1618,2018-05-22 14:11:51,1,69.9,0.0,4,69.9,0.0,69.9
1619,2018-05-22 14:11:51,2,69.9,0.0,4,139.8,0.0,139.8
1620,2018-02-26 09:19:13,1,69.9,19.98,1,69.9,19.98,89.88000000000001
1621,2018-02-26 09:19:13,2,69.9,19.98,1,139.8,39.96,179.76000000000002
1622,2018-01-11 21:47:10,1,69.9,16.12,5,69.9,16.12,86.02000000000001
1623,2018-01-22 20:51:53,1,69.9,13.08,5,69.9,13.08,82.98
1624,2018-01-22 20:51:53,2,69.9,13.08,5,139.8,26.16,165.96
1625,2018-02-21 10:43:58,1,69.9,19.98,2,69.9,19.98,89.88000000000001
1626,2017-08-06 21:28:23,1,75.0,16.16,3,75.0,16.16,91.16
1627,2018-05-25 01:51:58,1,69.9,0.0,5,69.9,0.0,69.9
1628,2018-05-25 01:51:58,2,69.9,0.0,5,139.8,0.0,139.8
1629,2018-03-05 11:46:57,1,69.9,19.98,3,69.9,19.98,89.88000000000001
1630,2018-05-26 07:45:36,1,69.9,0.0,4,69.9,0.0,69.9
1631,2018-04-02 11:51:50,1,69.9,12.43,5,69.9,12.43,82.33000000000001
1632,2018-02-27 17:19:31,1,69.9,20.98,4,69.9,20.98,90.88000000000001
1633,2018-04-23 09:07:38,1,69.9,0.0,5,69.9,0.0,69.9
1634,2018-01-10 12:02:10,1,69.9,19.98,5,69.9,19.98,89.88000000000001
1635,2018-02-27 16:30:12,1,69.9,13.08,5,69.9,13.08,82.98
1636,2018-02-27 16:30:12,2,69.9,13.08,5,139.8,26.16,165.96
1637,2018-04-03 00:42:20,1,69.9,12.43,5,69.9,12.43,82.33000000000001
1638,2018-01-05 09:28:49,1,69.9,19.98,4,69.9,19.98,89.88000000000001
1639,2017-10-31 15:00:53,1,75.0,10.51,3,75.0,10.51,85.51
1640,2017-10-31 15:00:53,2,75.0,10.51,3,150.0,21.02,171.02
1641,2018-04-19 10:18:33,1,69.9,0.0,3,69.9,0.0,69.9
1642,2017-12-13 18:02:39,1,75.0,16.16,5,75.0,16.16,91.16
1643,2018-01-04 17:42:07,1,69.9,20.98,4,69.9,20.98,90.88000000000001
1644,2017-11-28 18:53:28,1,75.0,29.94,1,75.0,29.94,104.94
1645,2018-03-09 18:16:15,1,69.9,21.57,1,69.9,21.57,91.47
1646,2017-11-19 14:55:44,1,75.0,16.16,3,75.0,16.16,91.16
1647,2018-02-12 21:25:28,1,69.9,23.0,3,69.9,23.0,92.9
1648,2018-01-10 10:56:33,1,69.9,23.36,5,69.9,23.36,93.26
1649,2018-01-04 14:44:50,1,69.9,13.08,3,69.9,13.08,82.98
1650,2018-01-15 18:24:19,1,69.9,19.98,5,69.9,19.98,89.88000000000001
1651,2018-05-08 22:15:04,1,69.9,0.0,5,69.9,0.0,69.9
1652,2018-05-08 22:15:04,2,69.9,0.0,5,139.8,0.0,139.8
1653,2018-05-24 15:43:12,1,69.9,0.0,4,69.9,0.0,69.9
1654,2018-03-05 22:30:02,1,69.9,21.57,1,69.9,21.57,91.47
1655,2018-03-05 22:30:02,2,69.9,21.57,1,139.8,43.14,182.94
1656,2018-03-09 20:45:07,1,69.9,26.57,4,69.9,26.57,96.47
1657,2018-02-26 16:51:20,1,69.9,16.12,4,69.9,16.12,86.02000000000001
1658,2018-01-05 21:34:39,1,69.9,24.94,3,69.9,24.94,94.84
1659,2018-05-07 21:46:22,1,69.9,0.0,4,69.9,0.0,69.9
1660,2018-07-11 18:26:53,1,89.9,32.65,5,89.9,32.65,122.55000000000001
1661,2018-05-09 12:27:01,1,69.9,12.43,5,69.9,12.43,82.33000000000001
1662,2018-02-13 21:54:39,1,69.9,19.98,2,69.9,19.98,89.88000000000001
1663,2018-01-13 00:21:59,1,69.9,29.9,2,69.9,29.9,99.80000000000001
1664,2018-03-11 18:14:17,1,69.9,21.57,1,69.9,21.57,91.47
1665,2018-04-20 18:29:15,1,69.9,0.0,5,69.9,0.0,69.9
