2016-09-01,6
2016-10-01,52
2017-01-01,88
2017-02-01,179
2017-03-01,239
2017-04-01,202
2017-05-01,318
2017-06-01,290
2017-07-01,559
2017-08-01,379
2017-09-01,408
2017-10-01,408
2017-11-01,663
2017-12-01,519
2018-01-01,713
2018-02-01,762
2018-03-01,738
2018-04-01,802
2018-05-01,887
2018-06-01,1009
2018-07-01,891
2018-08-01,961
